<mxfile host="app.diagrams.net" agent="Mozilla/5.0 (Windows NT 10.0; Win64; x64) AppleWebKit/537.36 (KHTML, like Gecko) Chrome/130.0.0.0 Safari/537.36" version="24.8.4">
  <diagram name="Page-1" id="eHlDSM1lyGvuE5XUMpZP">
    <mxGraphModel dx="1290" dy="603" grid="1" gridSize="10" guides="1" tooltips="1" connect="1" arrows="1" fold="1" page="1" pageScale="1" pageWidth="850" pageHeight="1100" math="0" shadow="0">
      <root>
        <mxCell id="0" />
        <mxCell id="1" parent="0" />
        <mxCell id="Wh6P4rFIQRALWeFqabU0-35" value="Customer" style="rounded=0;whiteSpace=wrap;html=1;" parent="1" vertex="1">
          <mxGeometry x="40" y="120" width="120" height="60" as="geometry" />
        </mxCell>
        <mxCell id="Wh6P4rFIQRALWeFqabU0-36" value="Manajemen keranjang&amp;nbsp;&lt;br&gt;3.0" style="ellipse;whiteSpace=wrap;html=1;aspect=fixed;" parent="1" vertex="1">
          <mxGeometry x="280" y="110" width="80" height="80" as="geometry" />
        </mxCell>
        <mxCell id="Wh6P4rFIQRALWeFqabU0-37" value="" style="endArrow=classic;html=1;rounded=0;entryX=-0.018;entryY=0.373;entryDx=0;entryDy=0;entryPerimeter=0;" parent="1" target="Wh6P4rFIQRALWeFqabU0-36" edge="1">
          <mxGeometry relative="1" as="geometry">
            <mxPoint x="160" y="140" as="sourcePoint" />
            <mxPoint x="260" y="140" as="targetPoint" />
          </mxGeometry>
        </mxCell>
        <mxCell id="Wh6P4rFIQRALWeFqabU0-38" value="Melihat keranjang" style="edgeLabel;resizable=0;html=1;;align=center;verticalAlign=middle;" parent="Wh6P4rFIQRALWeFqabU0-37" connectable="0" vertex="1">
          <mxGeometry relative="1" as="geometry" />
        </mxCell>
        <mxCell id="Wh6P4rFIQRALWeFqabU0-39" value="" style="endArrow=classic;html=1;rounded=0;exitX=-0.004;exitY=0.635;exitDx=0;exitDy=0;exitPerimeter=0;entryX=1.013;entryY=0.671;entryDx=0;entryDy=0;entryPerimeter=0;" parent="1" source="Wh6P4rFIQRALWeFqabU0-36" target="Wh6P4rFIQRALWeFqabU0-35" edge="1">
          <mxGeometry relative="1" as="geometry">
            <mxPoint x="170" y="210" as="sourcePoint" />
            <mxPoint x="270" y="210" as="targetPoint" />
          </mxGeometry>
        </mxCell>
        <mxCell id="Wh6P4rFIQRALWeFqabU0-40" value="Data keranjang" style="edgeLabel;resizable=0;html=1;;align=center;verticalAlign=middle;" parent="Wh6P4rFIQRALWeFqabU0-39" connectable="0" vertex="1">
          <mxGeometry relative="1" as="geometry" />
        </mxCell>
        <mxCell id="Wh6P4rFIQRALWeFqabU0-41" value="" style="endArrow=classic;html=1;rounded=0;exitX=0.5;exitY=0;exitDx=0;exitDy=0;entryX=0.015;entryY=0.354;entryDx=0;entryDy=0;entryPerimeter=0;" parent="1" source="Wh6P4rFIQRALWeFqabU0-36" target="Wh6P4rFIQRALWeFqabU0-43" edge="1">
          <mxGeometry relative="1" as="geometry">
            <mxPoint x="320" y="70" as="sourcePoint" />
            <mxPoint x="400" y="40" as="targetPoint" />
            <Array as="points">
              <mxPoint x="320" y="58" />
            </Array>
          </mxGeometry>
        </mxCell>
        <mxCell id="Wh6P4rFIQRALWeFqabU0-42" value="Data produk&lt;div&gt;terpilih&lt;/div&gt;" style="edgeLabel;resizable=0;html=1;;align=center;verticalAlign=middle;" parent="Wh6P4rFIQRALWeFqabU0-41" connectable="0" vertex="1">
          <mxGeometry relative="1" as="geometry">
            <mxPoint x="-15" y="22" as="offset" />
          </mxGeometry>
        </mxCell>
        <mxCell id="Wh6P4rFIQRALWeFqabU0-43" value="Menambah jumlah&lt;br&gt;produk (+)&lt;br&gt;3.1" style="ellipse;whiteSpace=wrap;html=1;aspect=fixed;" parent="1" vertex="1">
          <mxGeometry x="400" y="30" width="80" height="80" as="geometry" />
        </mxCell>
        <mxCell id="Wh6P4rFIQRALWeFqabU0-44" value="Mengurangi jumlah &lt;br&gt;produk (-)&lt;br&gt;3.3" style="ellipse;whiteSpace=wrap;html=1;aspect=fixed;" parent="1" vertex="1">
          <mxGeometry x="400" y="190" width="80" height="80" as="geometry" />
        </mxCell>
        <mxCell id="Wh6P4rFIQRALWeFqabU0-45" value="" style="endArrow=classic;html=1;rounded=0;exitX=0.5;exitY=1;exitDx=0;exitDy=0;entryX=0;entryY=0.5;entryDx=0;entryDy=0;" parent="1" source="Wh6P4rFIQRALWeFqabU0-36" target="Wh6P4rFIQRALWeFqabU0-44" edge="1">
          <mxGeometry relative="1" as="geometry">
            <mxPoint x="280" y="260" as="sourcePoint" />
            <mxPoint x="380" y="260" as="targetPoint" />
            <Array as="points">
              <mxPoint x="320" y="230" />
            </Array>
          </mxGeometry>
        </mxCell>
        <mxCell id="Wh6P4rFIQRALWeFqabU0-46" value="Data produk&lt;div&gt;terpilih&lt;/div&gt;" style="edgeLabel;resizable=0;html=1;;align=center;verticalAlign=middle;" parent="Wh6P4rFIQRALWeFqabU0-45" connectable="0" vertex="1">
          <mxGeometry relative="1" as="geometry">
            <mxPoint x="-20" y="-20" as="offset" />
          </mxGeometry>
        </mxCell>
        <mxCell id="Wh6P4rFIQRALWeFqabU0-47" value="D2 cookies" style="shape=partialRectangle;whiteSpace=wrap;html=1;left=0;right=0;fillColor=none;" parent="1" vertex="1">
          <mxGeometry x="540" y="120" width="120" height="60" as="geometry" />
        </mxCell>
        <mxCell id="Wh6P4rFIQRALWeFqabU0-48" value="" style="endArrow=classic;html=1;rounded=0;entryX=0.5;entryY=0;entryDx=0;entryDy=0;exitX=0.987;exitY=0.378;exitDx=0;exitDy=0;exitPerimeter=0;" parent="1" source="Wh6P4rFIQRALWeFqabU0-43" target="Wh6P4rFIQRALWeFqabU0-47" edge="1">
          <mxGeometry relative="1" as="geometry">
            <mxPoint x="480" y="70" as="sourcePoint" />
            <mxPoint x="580" y="70" as="targetPoint" />
            <Array as="points">
              <mxPoint x="600" y="60" />
            </Array>
          </mxGeometry>
        </mxCell>
        <mxCell id="Wh6P4rFIQRALWeFqabU0-49" value="menyimpan prerubahan&lt;br&gt;data" style="edgeLabel;resizable=0;html=1;;align=center;verticalAlign=middle;" parent="Wh6P4rFIQRALWeFqabU0-48" connectable="0" vertex="1">
          <mxGeometry relative="1" as="geometry">
            <mxPoint x="31" y="30" as="offset" />
          </mxGeometry>
        </mxCell>
        <mxCell id="Wh6P4rFIQRALWeFqabU0-50" value="" style="endArrow=classic;html=1;rounded=0;entryX=0.5;entryY=1;entryDx=0;entryDy=0;" parent="1" source="Wh6P4rFIQRALWeFqabU0-44" target="Wh6P4rFIQRALWeFqabU0-47" edge="1">
          <mxGeometry relative="1" as="geometry">
            <mxPoint x="480" y="230" as="sourcePoint" />
            <mxPoint x="580" y="230" as="targetPoint" />
            <Array as="points">
              <mxPoint x="600" y="230" />
            </Array>
          </mxGeometry>
        </mxCell>
        <mxCell id="Wh6P4rFIQRALWeFqabU0-51" value="menyimpan perubahan&amp;nbsp;&lt;br&gt;data" style="edgeLabel;resizable=0;html=1;;align=center;verticalAlign=middle;" parent="Wh6P4rFIQRALWeFqabU0-50" connectable="0" vertex="1">
          <mxGeometry relative="1" as="geometry">
            <mxPoint x="35" y="-20" as="offset" />
          </mxGeometry>
        </mxCell>
        <mxCell id="Wh6P4rFIQRALWeFqabU0-52" value="" style="endArrow=classic;html=1;rounded=0;entryX=-0.021;entryY=0.338;entryDx=0;entryDy=0;entryPerimeter=0;" parent="1" target="Wh6P4rFIQRALWeFqabU0-47" edge="1">
          <mxGeometry relative="1" as="geometry">
            <mxPoint x="360" y="140" as="sourcePoint" />
            <mxPoint x="460" y="140" as="targetPoint" />
          </mxGeometry>
        </mxCell>
        <mxCell id="Wh6P4rFIQRALWeFqabU0-53" value="Permintaan data keranjang" style="edgeLabel;resizable=0;html=1;;align=center;verticalAlign=middle;" parent="Wh6P4rFIQRALWeFqabU0-52" connectable="0" vertex="1">
          <mxGeometry relative="1" as="geometry" />
        </mxCell>
        <mxCell id="Wh6P4rFIQRALWeFqabU0-54" value="" style="endArrow=classic;html=1;rounded=0;exitX=0;exitY=0.667;exitDx=0;exitDy=0;exitPerimeter=0;entryX=0.983;entryY=0.615;entryDx=0;entryDy=0;entryPerimeter=0;" parent="1" source="Wh6P4rFIQRALWeFqabU0-47" target="Wh6P4rFIQRALWeFqabU0-36" edge="1">
          <mxGeometry relative="1" as="geometry">
            <mxPoint x="400" y="170" as="sourcePoint" />
            <mxPoint x="500" y="170" as="targetPoint" />
          </mxGeometry>
        </mxCell>
        <mxCell id="Wh6P4rFIQRALWeFqabU0-55" value="Data keranjang" style="edgeLabel;resizable=0;html=1;;align=center;verticalAlign=middle;" parent="Wh6P4rFIQRALWeFqabU0-54" connectable="0" vertex="1">
          <mxGeometry relative="1" as="geometry" />
        </mxCell>
      </root>
    </mxGraphModel>
  </diagram>
</mxfile>
