<mxfile host="app.diagrams.net" agent="Mozilla/5.0 (Windows NT 10.0; Win64; x64) AppleWebKit/537.36 (KHTML, like Gecko) Chrome/130.0.0.0 Safari/537.36" version="24.8.3">
  <diagram name="Page-1" id="wwHFwSt2GAYKfusRsZ-f">
    <mxGraphModel dx="1075" dy="503" grid="1" gridSize="10" guides="1" tooltips="1" connect="1" arrows="1" fold="1" page="1" pageScale="1" pageWidth="850" pageHeight="1100" math="0" shadow="0">
      <root>
        <mxCell id="0" />
        <mxCell id="1" parent="0" />
        <mxCell id="m_mhFU9n55fEtsR1PF8G-1" value="Customer" style="rounded=0;whiteSpace=wrap;html=1;" vertex="1" parent="1">
          <mxGeometry x="40" y="40" width="120" height="60" as="geometry" />
        </mxCell>
        <mxCell id="m_mhFU9n55fEtsR1PF8G-10" value="Checkout&lt;div&gt;2.1&lt;/div&gt;" style="ellipse;whiteSpace=wrap;html=1;aspect=fixed;" vertex="1" parent="1">
          <mxGeometry x="320" y="40" width="80" height="80" as="geometry" />
        </mxCell>
        <mxCell id="m_mhFU9n55fEtsR1PF8G-13" value="" style="endArrow=classic;html=1;rounded=0;" edge="1" parent="1" source="m_mhFU9n55fEtsR1PF8G-1">
          <mxGeometry relative="1" as="geometry">
            <mxPoint x="160" y="70" as="sourcePoint" />
            <mxPoint x="320" y="70" as="targetPoint" />
          </mxGeometry>
        </mxCell>
        <mxCell id="m_mhFU9n55fEtsR1PF8G-14" value="Konfrimasi&lt;div&gt;data login&lt;/div&gt;" style="edgeLabel;resizable=0;html=1;;align=center;verticalAlign=middle;" connectable="0" vertex="1" parent="m_mhFU9n55fEtsR1PF8G-13">
          <mxGeometry relative="1" as="geometry" />
        </mxCell>
        <mxCell id="m_mhFU9n55fEtsR1PF8G-15" value="Data base&amp;nbsp;&lt;div&gt;pemesanan&lt;/div&gt;" style="shape=partialRectangle;whiteSpace=wrap;html=1;left=0;right=0;fillColor=none;" vertex="1" parent="1">
          <mxGeometry x="530" y="40" width="120" height="60" as="geometry" />
        </mxCell>
        <mxCell id="m_mhFU9n55fEtsR1PF8G-16" value="" style="endArrow=classic;html=1;rounded=0;exitX=0;exitY=0.5;exitDx=0;exitDy=0;" edge="1" parent="1" source="m_mhFU9n55fEtsR1PF8G-15">
          <mxGeometry relative="1" as="geometry">
            <mxPoint x="460" y="60" as="sourcePoint" />
            <mxPoint x="400" y="70" as="targetPoint" />
          </mxGeometry>
        </mxCell>
        <mxCell id="m_mhFU9n55fEtsR1PF8G-17" value="Data pemesanan" style="edgeLabel;resizable=0;html=1;;align=center;verticalAlign=middle;" connectable="0" vertex="1" parent="m_mhFU9n55fEtsR1PF8G-16">
          <mxGeometry relative="1" as="geometry">
            <mxPoint x="10" as="offset" />
          </mxGeometry>
        </mxCell>
        <mxCell id="m_mhFU9n55fEtsR1PF8G-18" value="" style="endArrow=classic;html=1;rounded=0;exitX=0.5;exitY=1;exitDx=0;exitDy=0;entryX=0.5;entryY=0;entryDx=0;entryDy=0;" edge="1" parent="1" source="m_mhFU9n55fEtsR1PF8G-10" target="m_mhFU9n55fEtsR1PF8G-32">
          <mxGeometry relative="1" as="geometry">
            <mxPoint x="340" y="180" as="sourcePoint" />
            <mxPoint x="370" y="190" as="targetPoint" />
          </mxGeometry>
        </mxCell>
        <mxCell id="m_mhFU9n55fEtsR1PF8G-19" value="Validasi&lt;div&gt;hitung total&lt;/div&gt;" style="edgeLabel;resizable=0;html=1;;align=center;verticalAlign=middle;" connectable="0" vertex="1" parent="m_mhFU9n55fEtsR1PF8G-18">
          <mxGeometry relative="1" as="geometry">
            <mxPoint as="offset" />
          </mxGeometry>
        </mxCell>
        <mxCell id="m_mhFU9n55fEtsR1PF8G-27" value="Data base user" style="shape=partialRectangle;whiteSpace=wrap;html=1;left=0;right=0;fillColor=none;" vertex="1" parent="1">
          <mxGeometry x="530" y="120" width="120" height="60" as="geometry" />
        </mxCell>
        <mxCell id="m_mhFU9n55fEtsR1PF8G-28" value="" style="endArrow=classic;html=1;rounded=0;entryX=0;entryY=0.25;entryDx=0;entryDy=0;exitX=1;exitY=0.625;exitDx=0;exitDy=0;exitPerimeter=0;" edge="1" parent="1" source="m_mhFU9n55fEtsR1PF8G-10" target="m_mhFU9n55fEtsR1PF8G-27">
          <mxGeometry relative="1" as="geometry">
            <mxPoint x="410" y="100" as="sourcePoint" />
            <mxPoint x="510" y="100" as="targetPoint" />
            <Array as="points">
              <mxPoint x="460" y="90" />
              <mxPoint x="460" y="135" />
            </Array>
          </mxGeometry>
        </mxCell>
        <mxCell id="m_mhFU9n55fEtsR1PF8G-29" value="Valdiasi&amp;nbsp;&lt;div&gt;data login&lt;/div&gt;" style="edgeLabel;resizable=0;html=1;;align=center;verticalAlign=middle;" connectable="0" vertex="1" parent="m_mhFU9n55fEtsR1PF8G-28">
          <mxGeometry relative="1" as="geometry">
            <mxPoint y="-12" as="offset" />
          </mxGeometry>
        </mxCell>
        <mxCell id="m_mhFU9n55fEtsR1PF8G-30" value="" style="endArrow=classic;html=1;rounded=0;exitX=0;exitY=0.75;exitDx=0;exitDy=0;entryX=0.875;entryY=0.875;entryDx=0;entryDy=0;entryPerimeter=0;" edge="1" parent="1" source="m_mhFU9n55fEtsR1PF8G-27" target="m_mhFU9n55fEtsR1PF8G-10">
          <mxGeometry relative="1" as="geometry">
            <mxPoint x="490" y="230" as="sourcePoint" />
            <mxPoint x="590" y="230" as="targetPoint" />
            <Array as="points">
              <mxPoint x="440" y="165" />
            </Array>
          </mxGeometry>
        </mxCell>
        <mxCell id="m_mhFU9n55fEtsR1PF8G-31" value="Data login" style="edgeLabel;resizable=0;html=1;;align=center;verticalAlign=middle;" connectable="0" vertex="1" parent="m_mhFU9n55fEtsR1PF8G-30">
          <mxGeometry relative="1" as="geometry">
            <mxPoint x="29" as="offset" />
          </mxGeometry>
        </mxCell>
        <mxCell id="m_mhFU9n55fEtsR1PF8G-32" value="Midtrans&lt;div&gt;2.2&lt;/div&gt;" style="ellipse;whiteSpace=wrap;html=1;aspect=fixed;" vertex="1" parent="1">
          <mxGeometry x="320" y="200" width="80" height="80" as="geometry" />
        </mxCell>
        <mxCell id="m_mhFU9n55fEtsR1PF8G-61" value="" style="endArrow=classic;html=1;rounded=0;exitX=0;exitY=0.5;exitDx=0;exitDy=0;" edge="1" parent="1" source="m_mhFU9n55fEtsR1PF8G-32">
          <mxGeometry relative="1" as="geometry">
            <mxPoint x="220" y="260" as="sourcePoint" />
            <mxPoint x="230" y="300" as="targetPoint" />
            <Array as="points">
              <mxPoint x="230" y="240" />
            </Array>
          </mxGeometry>
        </mxCell>
        <mxCell id="m_mhFU9n55fEtsR1PF8G-62" value="Pembayaran&amp;nbsp;&lt;div&gt;berhasil&lt;/div&gt;" style="edgeLabel;resizable=0;html=1;;align=center;verticalAlign=middle;" connectable="0" vertex="1" parent="m_mhFU9n55fEtsR1PF8G-61">
          <mxGeometry relative="1" as="geometry">
            <mxPoint x="-15" y="20" as="offset" />
          </mxGeometry>
        </mxCell>
        <mxCell id="m_mhFU9n55fEtsR1PF8G-63" value="" style="endArrow=classic;html=1;rounded=0;" edge="1" parent="1">
          <mxGeometry relative="1" as="geometry">
            <mxPoint x="400" y="240" as="sourcePoint" />
            <mxPoint x="480" y="320" as="targetPoint" />
            <Array as="points">
              <mxPoint x="480" y="240" />
            </Array>
          </mxGeometry>
        </mxCell>
        <mxCell id="m_mhFU9n55fEtsR1PF8G-64" value="Pembayaran&amp;nbsp;&lt;div&gt;gagal&lt;/div&gt;" style="edgeLabel;resizable=0;html=1;;align=center;verticalAlign=middle;" connectable="0" vertex="1" parent="m_mhFU9n55fEtsR1PF8G-63">
          <mxGeometry relative="1" as="geometry">
            <mxPoint y="20" as="offset" />
          </mxGeometry>
        </mxCell>
        <mxCell id="m_mhFU9n55fEtsR1PF8G-65" value="Data base&lt;div&gt;transaksi&lt;/div&gt;" style="shape=partialRectangle;whiteSpace=wrap;html=1;left=0;right=0;fillColor=none;" vertex="1" parent="1">
          <mxGeometry x="185" y="410" width="90" height="50" as="geometry" />
        </mxCell>
        <mxCell id="m_mhFU9n55fEtsR1PF8G-68" value="" style="endArrow=classic;html=1;rounded=0;exitX=1.002;exitY=0.606;exitDx=0;exitDy=0;exitPerimeter=0;entryX=0.5;entryY=0;entryDx=0;entryDy=0;" edge="1" parent="1" target="m_mhFU9n55fEtsR1PF8G-71">
          <mxGeometry relative="1" as="geometry">
            <mxPoint x="270.00000000000006" y="430.30000000000007" as="sourcePoint" />
            <mxPoint x="399.82" y="430" as="targetPoint" />
            <Array as="points">
              <mxPoint x="400" y="430" />
            </Array>
          </mxGeometry>
        </mxCell>
        <mxCell id="m_mhFU9n55fEtsR1PF8G-69" value="Update status&lt;div&gt;pemesanan&lt;/div&gt;" style="edgeLabel;resizable=0;html=1;;align=center;verticalAlign=middle;" connectable="0" vertex="1" parent="m_mhFU9n55fEtsR1PF8G-68">
          <mxGeometry relative="1" as="geometry">
            <mxPoint x="-15" as="offset" />
          </mxGeometry>
        </mxCell>
        <mxCell id="m_mhFU9n55fEtsR1PF8G-71" value="Order&lt;div&gt;detail&lt;/div&gt;&lt;div&gt;2.5&lt;/div&gt;" style="ellipse;whiteSpace=wrap;html=1;aspect=fixed;" vertex="1" parent="1">
          <mxGeometry x="360" y="440" width="80" height="80" as="geometry" />
        </mxCell>
        <mxCell id="m_mhFU9n55fEtsR1PF8G-76" value="" style="endArrow=classic;html=1;rounded=0;entryX=0.668;entryY=1.019;entryDx=0;entryDy=0;entryPerimeter=0;exitX=0;exitY=0.5;exitDx=0;exitDy=0;" edge="1" parent="1" source="m_mhFU9n55fEtsR1PF8G-71" target="m_mhFU9n55fEtsR1PF8G-1">
          <mxGeometry relative="1" as="geometry">
            <mxPoint x="60" y="220" as="sourcePoint" />
            <mxPoint x="160" y="220" as="targetPoint" />
            <Array as="points">
              <mxPoint x="120" y="480" />
            </Array>
          </mxGeometry>
        </mxCell>
        <mxCell id="m_mhFU9n55fEtsR1PF8G-77" value="Invoice&amp;nbsp;&lt;div&gt;pemesanan&lt;/div&gt;" style="edgeLabel;resizable=0;html=1;;align=center;verticalAlign=middle;" connectable="0" vertex="1" parent="m_mhFU9n55fEtsR1PF8G-76">
          <mxGeometry relative="1" as="geometry">
            <mxPoint y="-140" as="offset" />
          </mxGeometry>
        </mxCell>
        <mxCell id="m_mhFU9n55fEtsR1PF8G-79" value="Cancel page&lt;br&gt;&lt;div&gt;2.4&lt;/div&gt;" style="ellipse;whiteSpace=wrap;html=1;aspect=fixed;" vertex="1" parent="1">
          <mxGeometry x="440" y="300" width="80" height="80" as="geometry" />
        </mxCell>
        <mxCell id="m_mhFU9n55fEtsR1PF8G-80" value="" style="endArrow=classic;html=1;rounded=0;exitX=0.5;exitY=1;exitDx=0;exitDy=0;entryX=0.329;entryY=1.027;entryDx=0;entryDy=0;entryPerimeter=0;" edge="1" parent="1" source="m_mhFU9n55fEtsR1PF8G-79" target="m_mhFU9n55fEtsR1PF8G-1">
          <mxGeometry relative="1" as="geometry">
            <mxPoint x="490" y="450" as="sourcePoint" />
            <mxPoint x="590" y="450" as="targetPoint" />
            <Array as="points">
              <mxPoint x="480" y="530" />
              <mxPoint x="80" y="530" />
            </Array>
          </mxGeometry>
        </mxCell>
        <mxCell id="m_mhFU9n55fEtsR1PF8G-81" value="Notifikasi pembayaran gagal" style="edgeLabel;resizable=0;html=1;;align=center;verticalAlign=middle;" connectable="0" vertex="1" parent="m_mhFU9n55fEtsR1PF8G-80">
          <mxGeometry relative="1" as="geometry">
            <mxPoint x="58" as="offset" />
          </mxGeometry>
        </mxCell>
        <mxCell id="m_mhFU9n55fEtsR1PF8G-82" value="Admin" style="rounded=0;whiteSpace=wrap;html=1;" vertex="1" parent="1">
          <mxGeometry x="140" y="120" width="120" height="60" as="geometry" />
        </mxCell>
        <mxCell id="m_mhFU9n55fEtsR1PF8G-83" value="" style="endArrow=classic;html=1;rounded=0;exitX=0.008;exitY=0.602;exitDx=0;exitDy=0;exitPerimeter=0;entryX=0.167;entryY=1.02;entryDx=0;entryDy=0;entryPerimeter=0;" edge="1" parent="1" source="m_mhFU9n55fEtsR1PF8G-65" target="m_mhFU9n55fEtsR1PF8G-82">
          <mxGeometry relative="1" as="geometry">
            <mxPoint x="160" y="183" as="sourcePoint" />
            <mxPoint x="180" y="210" as="targetPoint" />
            <Array as="points">
              <mxPoint x="160" y="440" />
            </Array>
          </mxGeometry>
        </mxCell>
        <mxCell id="m_mhFU9n55fEtsR1PF8G-84" value="Data pemesanan&amp;nbsp;&lt;div&gt;baru&lt;/div&gt;" style="edgeLabel;resizable=0;html=1;;align=center;verticalAlign=middle;" connectable="0" vertex="1" parent="m_mhFU9n55fEtsR1PF8G-83">
          <mxGeometry relative="1" as="geometry">
            <mxPoint x="25" y="-103" as="offset" />
          </mxGeometry>
        </mxCell>
        <mxCell id="m_mhFU9n55fEtsR1PF8G-85" value="Succes page&lt;div&gt;2.3&lt;/div&gt;" style="ellipse;whiteSpace=wrap;html=1;aspect=fixed;" vertex="1" parent="1">
          <mxGeometry x="190" y="300" width="80" height="80" as="geometry" />
        </mxCell>
        <mxCell id="m_mhFU9n55fEtsR1PF8G-86" value="" style="endArrow=classic;html=1;rounded=0;entryX=0.608;entryY=-0.054;entryDx=0;entryDy=0;entryPerimeter=0;exitX=1;exitY=0.5;exitDx=0;exitDy=0;" edge="1" parent="1" source="m_mhFU9n55fEtsR1PF8G-85" target="m_mhFU9n55fEtsR1PF8G-65">
          <mxGeometry relative="1" as="geometry">
            <mxPoint x="273" y="341" as="sourcePoint" />
            <mxPoint x="360" y="380" as="targetPoint" />
            <Array as="points">
              <mxPoint x="320" y="340" />
              <mxPoint x="320" y="390" />
              <mxPoint x="240" y="390" />
            </Array>
          </mxGeometry>
        </mxCell>
        <mxCell id="m_mhFU9n55fEtsR1PF8G-87" value="Detail Pemesanan&lt;div&gt;dan pembayaran&lt;/div&gt;" style="edgeLabel;resizable=0;html=1;;align=center;verticalAlign=middle;" connectable="0" vertex="1" parent="m_mhFU9n55fEtsR1PF8G-86">
          <mxGeometry relative="1" as="geometry">
            <mxPoint y="-19" as="offset" />
          </mxGeometry>
        </mxCell>
      </root>
    </mxGraphModel>
  </diagram>
</mxfile>
