<mxfile host="app.diagrams.net" agent="Mozilla/5.0 (Windows NT 10.0; Win64; x64) AppleWebKit/537.36 (KHTML, like Gecko) Chrome/130.0.0.0 Safari/537.36" version="24.8.3">
  <diagram name="Page-1" id="h6ac91d12EfQBZQoSeKc">
    <mxGraphModel dx="1075" dy="503" grid="1" gridSize="10" guides="1" tooltips="1" connect="1" arrows="1" fold="1" page="1" pageScale="1" pageWidth="850" pageHeight="1100" math="0" shadow="0">
      <root>
        <mxCell id="0" />
        <mxCell id="1" parent="0" />
        <mxCell id="H6ujbYDQ8i1ebrg5Hl8_-1" value="Customer" style="rounded=0;whiteSpace=wrap;html=1;" parent="1" vertex="1">
          <mxGeometry x="40" y="50" width="120" height="60" as="geometry" />
        </mxCell>
        <mxCell id="H6ujbYDQ8i1ebrg5Hl8_-4" value="Beranda&lt;div&gt;produk&lt;/div&gt;&lt;div&gt;1.0&lt;/div&gt;" style="ellipse;whiteSpace=wrap;html=1;aspect=fixed;" parent="1" vertex="1">
          <mxGeometry x="360" y="40" width="80" height="80" as="geometry" />
        </mxCell>
        <mxCell id="H6ujbYDQ8i1ebrg5Hl8_-7" value="" style="endArrow=classic;html=1;rounded=0;entryX=0;entryY=0.375;entryDx=0;entryDy=0;entryPerimeter=0;" parent="1" target="H6ujbYDQ8i1ebrg5Hl8_-4" edge="1">
          <mxGeometry relative="1" as="geometry">
            <mxPoint x="160" y="70" as="sourcePoint" />
            <mxPoint x="260" y="70" as="targetPoint" />
          </mxGeometry>
        </mxCell>
        <mxCell id="H6ujbYDQ8i1ebrg5Hl8_-8" value="Melihat detail dan daftar produk" style="edgeLabel;resizable=0;html=1;;align=center;verticalAlign=middle;" parent="H6ujbYDQ8i1ebrg5Hl8_-7" connectable="0" vertex="1">
          <mxGeometry relative="1" as="geometry">
            <mxPoint x="-10" as="offset" />
          </mxGeometry>
        </mxCell>
        <mxCell id="H6ujbYDQ8i1ebrg5Hl8_-9" value="" style="endArrow=classic;html=1;rounded=0;entryX=1.01;entryY=0.819;entryDx=0;entryDy=0;entryPerimeter=0;exitX=0.052;exitY=0.739;exitDx=0;exitDy=0;exitPerimeter=0;" parent="1" source="H6ujbYDQ8i1ebrg5Hl8_-4" target="H6ujbYDQ8i1ebrg5Hl8_-1" edge="1">
          <mxGeometry relative="1" as="geometry">
            <mxPoint x="170" y="80" as="sourcePoint" />
            <mxPoint x="330" y="80" as="targetPoint" />
          </mxGeometry>
        </mxCell>
        <mxCell id="H6ujbYDQ8i1ebrg5Hl8_-10" value="Menampilkan data produk" style="edgeLabel;resizable=0;html=1;;align=center;verticalAlign=middle;" parent="H6ujbYDQ8i1ebrg5Hl8_-9" connectable="0" vertex="1">
          <mxGeometry relative="1" as="geometry">
            <mxPoint x="8" as="offset" />
          </mxGeometry>
        </mxCell>
        <mxCell id="H6ujbYDQ8i1ebrg5Hl8_-11" value="" style="endArrow=classic;html=1;rounded=0;exitX=0;exitY=0.5;exitDx=0;exitDy=0;entryX=1;entryY=0.5;entryDx=0;entryDy=0;" parent="1" source="H6ujbYDQ8i1ebrg5Hl8_-13" target="H6ujbYDQ8i1ebrg5Hl8_-4" edge="1">
          <mxGeometry relative="1" as="geometry">
            <mxPoint x="500" y="150" as="sourcePoint" />
            <mxPoint x="600" y="150" as="targetPoint" />
          </mxGeometry>
        </mxCell>
        <mxCell id="H6ujbYDQ8i1ebrg5Hl8_-12" value="Data produk" style="edgeLabel;resizable=0;html=1;;align=center;verticalAlign=middle;" parent="H6ujbYDQ8i1ebrg5Hl8_-11" connectable="0" vertex="1">
          <mxGeometry relative="1" as="geometry" />
        </mxCell>
        <mxCell id="H6ujbYDQ8i1ebrg5Hl8_-13" value="Data base&amp;nbsp;&lt;div&gt;produk&lt;/div&gt;" style="shape=partialRectangle;whiteSpace=wrap;html=1;left=0;right=0;fillColor=none;" parent="1" vertex="1">
          <mxGeometry x="540" y="55" width="110" height="50" as="geometry" />
        </mxCell>
        <mxCell id="H6ujbYDQ8i1ebrg5Hl8_-14" value="Manajemen&lt;div&gt;keranjang&lt;/div&gt;&lt;div&gt;2.2&lt;/div&gt;" style="ellipse;whiteSpace=wrap;html=1;aspect=fixed;" parent="1" vertex="1">
          <mxGeometry x="360" y="200" width="80" height="80" as="geometry" />
        </mxCell>
        <mxCell id="H6ujbYDQ8i1ebrg5Hl8_-15" value="" style="endArrow=classic;html=1;rounded=0;exitX=0.5;exitY=1;exitDx=0;exitDy=0;entryX=0.5;entryY=0;entryDx=0;entryDy=0;" parent="1" source="H6ujbYDQ8i1ebrg5Hl8_-4" target="H6ujbYDQ8i1ebrg5Hl8_-14" edge="1">
          <mxGeometry relative="1" as="geometry">
            <mxPoint x="440" y="150" as="sourcePoint" />
            <mxPoint x="540" y="150" as="targetPoint" />
          </mxGeometry>
        </mxCell>
        <mxCell id="H6ujbYDQ8i1ebrg5Hl8_-16" value="&amp;nbsp;Data produk&lt;div&gt;terpilih&lt;/div&gt;" style="edgeLabel;resizable=0;html=1;;align=center;verticalAlign=middle;" parent="H6ujbYDQ8i1ebrg5Hl8_-15" connectable="0" vertex="1">
          <mxGeometry relative="1" as="geometry" />
        </mxCell>
        <mxCell id="H6ujbYDQ8i1ebrg5Hl8_-17" value="Data base&lt;div&gt;pemesanan&lt;/div&gt;" style="shape=partialRectangle;whiteSpace=wrap;html=1;left=0;right=0;fillColor=none;" parent="1" vertex="1">
          <mxGeometry x="45" y="360" width="110" height="50" as="geometry" />
        </mxCell>
        <mxCell id="H6ujbYDQ8i1ebrg5Hl8_-18" value="" style="endArrow=classic;html=1;rounded=0;exitX=0.5;exitY=1;exitDx=0;exitDy=0;entryX=0.5;entryY=0;entryDx=0;entryDy=0;" parent="1" source="H6ujbYDQ8i1ebrg5Hl8_-14" target="H6ujbYDQ8i1ebrg5Hl8_-33" edge="1">
          <mxGeometry relative="1" as="geometry">
            <mxPoint x="430" y="300" as="sourcePoint" />
            <mxPoint x="400" y="340" as="targetPoint" />
          </mxGeometry>
        </mxCell>
        <mxCell id="H6ujbYDQ8i1ebrg5Hl8_-19" value="Data keranjang" style="edgeLabel;resizable=0;html=1;;align=center;verticalAlign=middle;" parent="H6ujbYDQ8i1ebrg5Hl8_-18" connectable="0" vertex="1">
          <mxGeometry relative="1" as="geometry">
            <mxPoint y="-10" as="offset" />
          </mxGeometry>
        </mxCell>
        <mxCell id="H6ujbYDQ8i1ebrg5Hl8_-20" value="Checkout&lt;div&gt;2.3&lt;/div&gt;" style="ellipse;whiteSpace=wrap;html=1;aspect=fixed;" parent="1" vertex="1">
          <mxGeometry x="60" y="200" width="80" height="80" as="geometry" />
        </mxCell>
        <mxCell id="H6ujbYDQ8i1ebrg5Hl8_-21" value="" style="endArrow=classic;html=1;rounded=0;entryX=0.5;entryY=0;entryDx=0;entryDy=0;exitX=0.5;exitY=1;exitDx=0;exitDy=0;" parent="1" source="H6ujbYDQ8i1ebrg5Hl8_-20" target="H6ujbYDQ8i1ebrg5Hl8_-17" edge="1">
          <mxGeometry relative="1" as="geometry">
            <mxPoint x="100" y="290" as="sourcePoint" />
            <mxPoint x="80" y="350" as="targetPoint" />
            <Array as="points" />
          </mxGeometry>
        </mxCell>
        <mxCell id="H6ujbYDQ8i1ebrg5Hl8_-22" value="Data pemesanan" style="edgeLabel;resizable=0;html=1;;align=center;verticalAlign=middle;" parent="H6ujbYDQ8i1ebrg5Hl8_-21" connectable="0" vertex="1">
          <mxGeometry relative="1" as="geometry">
            <mxPoint y="-10" as="offset" />
          </mxGeometry>
        </mxCell>
        <mxCell id="H6ujbYDQ8i1ebrg5Hl8_-23" value="" style="endArrow=classic;html=1;rounded=0;exitX=0.5;exitY=0;exitDx=0;exitDy=0;entryX=0.5;entryY=1;entryDx=0;entryDy=0;" parent="1" source="H6ujbYDQ8i1ebrg5Hl8_-20" target="H6ujbYDQ8i1ebrg5Hl8_-1" edge="1">
          <mxGeometry relative="1" as="geometry">
            <mxPoint x="150" y="190" as="sourcePoint" />
            <mxPoint x="250" y="190" as="targetPoint" />
          </mxGeometry>
        </mxCell>
        <mxCell id="H6ujbYDQ8i1ebrg5Hl8_-24" value="Detail total pemesanan" style="edgeLabel;resizable=0;html=1;;align=center;verticalAlign=middle;" parent="H6ujbYDQ8i1ebrg5Hl8_-23" connectable="0" vertex="1">
          <mxGeometry relative="1" as="geometry">
            <mxPoint x="10" as="offset" />
          </mxGeometry>
        </mxCell>
        <mxCell id="H6ujbYDQ8i1ebrg5Hl8_-26" value="" style="endArrow=classic;html=1;rounded=0;exitX=0.5;exitY=1;exitDx=0;exitDy=0;entryX=0;entryY=0.5;entryDx=0;entryDy=0;" parent="1" source="H6ujbYDQ8i1ebrg5Hl8_-17" target="H6ujbYDQ8i1ebrg5Hl8_-28" edge="1">
          <mxGeometry relative="1" as="geometry">
            <mxPoint x="460" y="420" as="sourcePoint" />
            <mxPoint x="360" y="480.0000000000001" as="targetPoint" />
            <Array as="points">
              <mxPoint x="100" y="480" />
            </Array>
          </mxGeometry>
        </mxCell>
        <mxCell id="H6ujbYDQ8i1ebrg5Hl8_-27" value="Data pemesanan" style="edgeLabel;resizable=0;html=1;;align=center;verticalAlign=middle;" parent="H6ujbYDQ8i1ebrg5Hl8_-26" connectable="0" vertex="1">
          <mxGeometry relative="1" as="geometry">
            <mxPoint x="23" as="offset" />
          </mxGeometry>
        </mxCell>
        <mxCell id="H6ujbYDQ8i1ebrg5Hl8_-28" value="Admin" style="rounded=0;whiteSpace=wrap;html=1;" parent="1" vertex="1">
          <mxGeometry x="230" y="450" width="120" height="60" as="geometry" />
        </mxCell>
        <mxCell id="H6ujbYDQ8i1ebrg5Hl8_-33" value="Data base&lt;div&gt;coockies&lt;/div&gt;" style="shape=partialRectangle;whiteSpace=wrap;html=1;left=0;right=0;fillColor=none;" parent="1" vertex="1">
          <mxGeometry x="340" y="355" width="120" height="60" as="geometry" />
        </mxCell>
        <mxCell id="H6ujbYDQ8i1ebrg5Hl8_-34" value="" style="endArrow=classic;html=1;rounded=0;exitX=0;exitY=0.5;exitDx=0;exitDy=0;entryX=1;entryY=0.5;entryDx=0;entryDy=0;" parent="1" source="H6ujbYDQ8i1ebrg5Hl8_-33" target="H6ujbYDQ8i1ebrg5Hl8_-20" edge="1">
          <mxGeometry relative="1" as="geometry">
            <mxPoint x="190" y="380" as="sourcePoint" />
            <mxPoint x="290" y="380" as="targetPoint" />
            <Array as="points">
              <mxPoint x="240" y="385" />
              <mxPoint x="240" y="240" />
            </Array>
          </mxGeometry>
        </mxCell>
        <mxCell id="H6ujbYDQ8i1ebrg5Hl8_-35" value="Data keranjang" style="edgeLabel;resizable=0;html=1;;align=center;verticalAlign=middle;" parent="H6ujbYDQ8i1ebrg5Hl8_-34" connectable="0" vertex="1">
          <mxGeometry relative="1" as="geometry" />
        </mxCell>
      </root>
    </mxGraphModel>
  </diagram>
</mxfile>
